{
	"checklists": [
		{
			"employeeName": "Anton Nyberg",
			"employeeUsername": "nemp6loyee",
			"managerName": "J Man Ager",
			"departmentName": "Sub organization 5335",
			"delegatedTo": [
				"Hank Doe",
				"Patrik Franco"
			],
			"employmentDate": "2024-01-01",
			"purgeDate": "2124-07-01"
		},
		{
			"employeeName": "Fredrik Karlsson",
			"employeeUsername": "oemp6loyee",
			"managerName": "J Man Ager",
			"departmentName": "Sub organization 5335",
			"delegatedTo": [
				"John Doe"
			],
			"employmentDate": "2024-01-01",
			"purgeDate": "2124-07-01"
		}
	],
	"_meta": {
		"page": 1,
		"limit": 2,
		"count": 2,
		"totalRecords": 4,
		"totalPages": 2
	}
}
